\relax 
\providecommand\hyper@newdestlabel[2]{}
\citation{R.Halmos1960}
\@writefile{toc}{\contentsline {chapter}{\numberline {3}Fuzzy Design and Concept development}{17}{chapter.3}}
\@writefile{lof}{\addvspace {10\p@ }}
\@writefile{lot}{\addvspace {10\p@ }}
\@writefile{toc}{\contentsline {section}{\numberline {3.1}Sets}{17}{section.3.1}}
\newlabel{equation:sets}{{3.1}{17}{Sets}{equation.3.1.1}{}}
\citation{ZADEH1965}
\citation{ZADEH1965}
\citation{WitoldPedrycz2011}
\@writefile{toc}{\contentsline {section}{\numberline {3.2}Fuzzy Sets}{18}{section.3.2}}
\@writefile{toc}{\contentsline {subsection}{\numberline {3.2.1}Classes of Membership Functions}{18}{subsection.3.2.1}}
\@writefile{lof}{\contentsline {figure}{\numberline {3.1}{\ignorespaces Triangular Membership Function}}{19}{figure.3.1}}
\newlabel{fig:triangular}{{3.1}{19}{Triangular Membership Function}{figure.3.1}{}}
\newlabel{equation:triangular}{{3.5}{19}{Classes of Membership Functions}{equation.3.2.5}{}}
\newlabel{equation:Trapezoidal}{{3.6}{19}{Classes of Membership Functions}{equation.3.2.6}{}}
\@writefile{lof}{\contentsline {figure}{\numberline {3.2}{\ignorespaces Trapezoidal Membership Function}}{20}{figure.3.2}}
\newlabel{fig:Trapezoidal}{{3.2}{20}{Trapezoidal Membership Function}{figure.3.2}{}}
\@writefile{lof}{\contentsline {figure}{\numberline {3.3}{\ignorespaces Monotonically Decreasing Linear membership function}}{20}{figure.3.3}}
\newlabel{fig:tMembershipfunction}{{3.3}{20}{Monotonically Decreasing Linear membership function}{figure.3.3}{}}
\newlabel{equation:Monotonically}{{3.7}{20}{Classes of Membership Functions}{equation.3.2.7}{}}
\@writefile{lof}{\contentsline {figure}{\numberline {3.4}{\ignorespaces Monotonically Increasing Linear membership function}}{21}{figure.3.4}}
\newlabel{fig:lMembershipfunction}{{3.4}{21}{Monotonically Increasing Linear membership function}{figure.3.4}{}}
\newlabel{equation:mononicallyincreasing}{{3.8}{21}{Classes of Membership Functions}{equation.3.2.8}{}}
\newlabel{equation:mononicallyincreasingsigmoidal}{{3.9}{21}{Classes of Membership Functions}{equation.3.2.9}{}}
\citation{ZADEH1975}
\newlabel{equation:mononicallyidecreasingsigmoidal}{{3.10}{22}{Classes of Membership Functions}{equation.3.2.10}{}}
\newlabel{equation:gaussian}{{3.11}{22}{Classes of Membership Functions}{equation.3.2.11}{}}
\@writefile{toc}{\contentsline {subsection}{\numberline {3.2.2}Linguistic Variables}{22}{subsection.3.2.2}}
\@writefile{toc}{\contentsline {subsection}{\numberline {3.2.3}Examples of Fuzzy sets}{22}{subsection.3.2.3}}
\@writefile{toc}{\contentsline {paragraph}{Example One}{22}{subsection.3.2.3}}
\@writefile{lof}{\contentsline {figure}{\numberline {3.5}{\ignorespaces Age Defined using Fuzzy Concept}}{23}{figure.3.5}}
\newlabel{fig:age}{{3.5}{23}{Age Defined using Fuzzy Concept}{figure.3.5}{}}
\@writefile{toc}{\contentsline {paragraph}{Example Two}{23}{figure.3.5}}
\@writefile{lof}{\contentsline {figure}{\numberline {3.6}{\ignorespaces Deploying cost modelled using Fuzzy Logic By First Application Owner }}{25}{figure.3.6}}
\newlabel{fig:cost}{{3.6}{25}{Deploying cost modelled using Fuzzy Logic By First Application Owner}{figure.3.6}{}}
\citation{J.P.Brans1985}
\@writefile{lof}{\contentsline {figure}{\numberline {3.7}{\ignorespaces Deploying cost modelled using Fuzzy Logic By Second Application Owner }}{26}{figure.3.7}}
\newlabel{fig:costLow}{{3.7}{26}{Deploying cost modelled using Fuzzy Logic By Second Application Owner}{figure.3.7}{}}
\@writefile{toc}{\contentsline {section}{\numberline {3.3}PROMETHEE Method}{26}{section.3.3}}
\@writefile{toc}{\contentsline {paragraph}{Step I:}{26}{section.3.3}}
\@writefile{toc}{\contentsline {paragraph}{Step II:}{26}{section.3.3}}
\citation{J.P.Brans1985}
\newlabel{equation:d}{{3.13}{27}{Step II:}{equation.3.3.13}{}}
\@writefile{toc}{\contentsline {paragraph}{Type I}{27}{equation.3.3.14}}
\@writefile{toc}{\contentsline {paragraph}{Type II}{27}{equation.3.3.15}}
\citation{J.P.Brans1985}
\@writefile{toc}{\contentsline {paragraph}{Type III}{28}{equation.3.3.16}}
\@writefile{toc}{\contentsline {paragraph}{Type IV}{28}{equation.3.3.17}}
\@writefile{toc}{\contentsline {paragraph}{Type V}{28}{equation.3.3.18}}
\@writefile{toc}{\contentsline {paragraph}{Type VI}{28}{equation.3.3.19}}
\@writefile{toc}{\contentsline {paragraph}{Step III:}{29}{equation.3.3.20}}
\newlabel{equation:preferencewithweight}{{3.21}{29}{Step III:}{equation.3.3.21}{}}
\newlabel{equation:preference}{{3.22}{29}{Step III:}{equation.3.3.22}{}}
\@writefile{toc}{\contentsline {paragraph}{Step IV :}{29}{equation.3.3.22}}
\citation{J.P.Brans1985}
\citation{J.P.Brans1985}
\@writefile{toc}{\contentsline {section}{\numberline {3.4}Fuzzy Preference}{30}{section.3.4}}
\@writefile{toc}{\contentsline {subsection}{\numberline {3.4.1}Expressing preference using linguistic terms}{30}{subsection.3.4.1}}
\@writefile{toc}{\contentsline {subsection}{\numberline {3.4.2}Fuzzy system for preference function modelling}{30}{subsection.3.4.2}}
\@writefile{lof}{\contentsline {figure}{\numberline {3.8}{\ignorespaces Difference of cost modelled in Fuzzy logic}}{31}{figure.3.8}}
\newlabel{fig:M1}{{3.8}{31}{Difference of cost modelled in Fuzzy logic}{figure.3.8}{}}
\@writefile{lof}{\contentsline {figure}{\numberline {3.9}{\ignorespaces Difference of response time modelled in Fuzzy logic}}{31}{figure.3.9}}
\newlabel{fig:M2}{{3.9}{31}{Difference of response time modelled in Fuzzy logic}{figure.3.9}{}}
\@writefile{toc}{\contentsline {subsection}{\numberline {3.4.3}Fuzzifier}{31}{subsection.3.4.3}}
\@writefile{toc}{\contentsline {subsection}{\numberline {3.4.4}Fuzzy Preference Rule Base(FRPRB)}{31}{subsection.3.4.4}}
\@writefile{lof}{\contentsline {figure}{\numberline {3.10}{\ignorespaces Fuzzifier - The crisp value \textit  {a} is changed as a fuzzy set shown by the black coloured}}{32}{figure.3.10}}
\newlabel{fig:singleton}{{3.10}{32}{Fuzzifier - The crisp value \textit {a} is changed as a fuzzy set shown by the black coloured}{figure.3.10}{}}
\@writefile{toc}{\contentsline {subsection}{\numberline {3.4.5}Fuzzy Inference Engine(FIE)}{32}{subsection.3.4.5}}
\@writefile{lof}{\contentsline {figure}{\numberline {3.11}{\ignorespaces Fuzzy Preference Rule Base}}{33}{figure.3.11}}
\newlabel{fig:fuzzypreferencerulebase}{{3.11}{33}{Fuzzy Preference Rule Base}{figure.3.11}{}}
\@writefile{lof}{\contentsline {figure}{\numberline {3.12}{\ignorespaces Fuzzy Inference Engine - Mapping the criteria difference to preference}}{34}{figure.3.12}}
\newlabel{fig:superstar}{{3.12}{34}{Fuzzy Inference Engine - Mapping the criteria difference to preference}{figure.3.12}{}}
\@writefile{toc}{\contentsline {subsection}{\numberline {3.4.6}Defuzzifier}{34}{subsection.3.4.6}}
\newlabel{equation:center}{{3.26}{34}{Defuzzifier}{equation.3.4.26}{}}
\newlabel{equation:area}{{3.27}{34}{Defuzzifier}{equation.3.4.27}{}}
\newlabel{equation:defuzzifier}{{3.28}{34}{Defuzzifier}{equation.3.4.28}{}}
\@writefile{toc}{\contentsline {section}{\numberline {3.5}Steps Involved in the PROMETHE method}{34}{section.3.5}}
\@writefile{lof}{\contentsline {figure}{\numberline {3.13}{\ignorespaces Results fuzzy set when criterion value is a crisp number}}{35}{figure.3.13}}
\newlabel{fig:resultsfuzzy}{{3.13}{35}{Results fuzzy set when criterion value is a crisp number}{figure.3.13}{}}
\@writefile{lof}{\contentsline {figure}{\numberline {3.14}{\ignorespaces Final Results Fuzzy set when criterion values is crisp number}}{36}{figure.3.14}}
\newlabel{fig:finalresults}{{3.14}{36}{Final Results Fuzzy set when criterion values is crisp number}{figure.3.14}{}}
\@writefile{lof}{\contentsline {figure}{\numberline {3.15}{\ignorespaces Defuzzifier - Maps the Fuzzy set to Crisp value}}{36}{figure.3.15}}
\newlabel{fig:finalresultsdefuzzifier}{{3.15}{36}{Defuzzifier - Maps the Fuzzy set to Crisp value}{figure.3.15}{}}
\@writefile{lof}{\contentsline {figure}{\numberline {3.16}{\ignorespaces Components of Fuzzy Preference Function Modelling}}{36}{figure.3.16}}
\newlabel{fig:6forces}{{3.16}{36}{Components of Fuzzy Preference Function Modelling}{figure.3.16}{}}
\citation{ORI_.OVSKY1978}
\citation{WitoldPedrycz2011}
\@writefile{toc}{\contentsline {section}{\numberline {3.6}Fuzzy Preference Relation based Ranking}{37}{section.3.6}}
\@writefile{toc}{\contentsline {subsection}{\numberline {3.6.1}Binary Fuzzy Relation}{37}{subsection.3.6.1}}
\citation{ORI_.OVSKY1978}
\citation{WitoldPedrycz2011}
\@writefile{toc}{\contentsline {subsection}{\numberline {3.6.2}Preference Modelling with Binary Fuzzy Relation}{38}{subsection.3.6.2}}
\newlabel{equation:RtoP}{{3.30}{38}{Preference Modelling with Binary Fuzzy Relation}{equation.3.6.30}{}}
\newlabel{equation:ND}{{3.31}{38}{Preference Modelling with Binary Fuzzy Relation}{equation.3.6.31}{}}
\newlabel{equation:NDs}{{3.32}{38}{Preference Modelling with Binary Fuzzy Relation}{equation.3.6.32}{}}
\newlabel{equation:matrixR}{{3.33}{39}{Preference Modelling with Binary Fuzzy Relation}{equation.3.6.33}{}}
\newlabel{equation:matrixP}{{3.34}{39}{Preference Modelling with Binary Fuzzy Relation}{equation.3.6.34}{}}
\newlabel{equation:matrixND}{{3.35}{39}{Preference Modelling with Binary Fuzzy Relation}{equation.3.6.35}{}}
\@setckpt{chapter03}{
\setcounter{page}{40}
\setcounter{equation}{35}
\setcounter{enumi}{9}
\setcounter{enumii}{2}
\setcounter{enumiii}{0}
\setcounter{enumiv}{0}
\setcounter{footnote}{0}
\setcounter{mpfootnote}{0}
\setcounter{part}{0}
\setcounter{chapter}{3}
\setcounter{section}{6}
\setcounter{subsection}{2}
\setcounter{subsubsection}{0}
\setcounter{paragraph}{0}
\setcounter{subparagraph}{0}
\setcounter{figure}{16}
\setcounter{table}{0}
\setcounter{r@tfl@t}{0}
\setcounter{parentequation}{0}
\setcounter{NAT@ctr}{0}
\setcounter{Item}{33}
\setcounter{Hfootnote}{9}
\setcounter{bookmark@seq@number}{36}
\setcounter{AM@survey}{0}
\setcounter{lips@count}{0}
\setcounter{lstnumber}{1}
\setcounter{section@level}{0}
\setcounter{lstlisting}{0}
}
