\relax 
\providecommand\hyper@newdestlabel[2]{}
\citation{Wilcoxon1945}
\@writefile{toc}{\contentsline {chapter}{\numberline {5}Validation}{62}{chapter.5}}
\@writefile{lof}{\addvspace {10\p@ }}
\@writefile{lot}{\addvspace {10\p@ }}
\@writefile{toc}{\contentsline {section}{\numberline {5.1}Benchmark method}{62}{section.5.1}}
\@writefile{toc}{\contentsline {section}{\numberline {5.2}Wilcoxon Signed Rank Test}{63}{section.5.2}}
\@writefile{toc}{\contentsline {subsection}{\numberline {5.2.1}Null and Alternative Hypotheses}{63}{subsection.5.2.1}}
\@writefile{toc}{\contentsline {subsection}{\numberline {5.2.2}State alpha}{64}{subsection.5.2.2}}
\@writefile{toc}{\contentsline {subsection}{\numberline {5.2.3}Calculate the Test Statistic}{64}{subsection.5.2.3}}
\newlabel{equation:signequation}{{5.4}{64}{Calculate the Test Statistic}{equation.5.2.4}{}}
\citation{W.J.Conover1999}
\citation{Matsumoto1998}
\newlabel{equation:teststatistic}{{5.8}{65}{Calculate the Test Statistic}{equation.5.2.8}{}}
\@writefile{toc}{\contentsline {subsection}{\numberline {5.2.4}State Decision Rule}{65}{subsection.5.2.4}}
\newlabel{equation:mean}{{5.9}{65}{State Decision Rule}{equation.5.2.9}{}}
\newlabel{equation:standarddeviation}{{5.10}{65}{State Decision Rule}{equation.5.2.10}{}}
\@writefile{toc}{\contentsline {section}{\numberline {5.3}Comparison}{65}{section.5.3}}
\@writefile{toc}{\contentsline {subsection}{\numberline {5.3.1}Mathematical utility versus Fuzzy Binary Preference Relation method}{66}{subsection.5.3.1}}
\@writefile{toc}{\contentsline {subsubsection}{Sample size of 50}{66}{subsection.5.3.1}}
\@writefile{toc}{\contentsline {subsubsection}{Sample Size of 250}{66}{subsection.5.3.1}}
\@writefile{toc}{\contentsline {subsection}{\numberline {5.3.2}Mathematical utility versus Fuzzy PROMETHEE}{67}{subsection.5.3.2}}
\@writefile{toc}{\contentsline {subsubsection}{Sample size of 50}{67}{subsection.5.3.2}}
\@writefile{toc}{\contentsline {subsubsection}{Sample Size of 250}{68}{subsection.5.3.2}}
\@setckpt{chapter05}{
\setcounter{page}{69}
\setcounter{equation}{11}
\setcounter{enumi}{7}
\setcounter{enumii}{2}
\setcounter{enumiii}{0}
\setcounter{enumiv}{0}
\setcounter{footnote}{2}
\setcounter{mpfootnote}{0}
\setcounter{part}{0}
\setcounter{chapter}{5}
\setcounter{section}{3}
\setcounter{subsection}{2}
\setcounter{subsubsection}{0}
\setcounter{paragraph}{0}
\setcounter{subparagraph}{0}
\setcounter{figure}{0}
\setcounter{table}{0}
\setcounter{r@tfl@t}{0}
\setcounter{parentequation}{0}
\setcounter{NAT@ctr}{0}
\setcounter{Item}{54}
\setcounter{Hfootnote}{13}
\setcounter{bookmark@seq@number}{61}
\setcounter{AM@survey}{0}
\setcounter{lips@count}{0}
\setcounter{lstnumber}{5}
\setcounter{section@level}{0}
\setcounter{lstlisting}{0}
}
