\relax 
\providecommand\hyper@newdestlabel[2]{}
\citation{MariosD.Dikaiakos2009}
\citation{LizheWang2008}
\citation{LizheWang2008}
\citation{AmitGajbhiye2014}
\citation{raey}
\citation{MuhammadBaqerMollah2012}
\citation{YashpalsinhJadeja2012}
\@writefile{toc}{\contentsline {chapter}{\numberline {1}Introduction}{2}{chapter.1}}
\@writefile{lof}{\addvspace {10\p@ }}
\@writefile{lot}{\addvspace {10\p@ }}
\citation{raey}
\citation{LinhManhPham2015}
\citation{MarcioSilva2013}
\citation{JeffreyO.Kephart2003}
\citation{S.Hallsteinsena2012}
\citation{K.GeihsP.Barone2008}
\citation{S.Hallsteinsena2012}
\citation{WilliamE.Walsh2004}
\citation{K.GeihsP.Barone2008}
\@writefile{toc}{\contentsline {section}{\numberline {1.1}Motivation for Research}{5}{section.1.1}}
\@writefile{toc}{\contentsline {section}{\numberline {1.2}Research Objectives}{5}{section.1.2}}
\@writefile{lot}{\contentsline {table}{\numberline {1.1}{\ignorespaces Alternative configuration and respective criteria values- Multi Criteria Decision Making Table}}{6}{table.1.1}}
\newlabel{table:1}{{1.1}{6}{Alternative configuration and respective criteria values- Multi Criteria Decision Making Table}{table.1.1}{}}
\@writefile{toc}{\contentsline {section}{\numberline {1.3}Research Question}{6}{section.1.3}}
\@writefile{toc}{\contentsline {section}{\numberline {1.4}Research Design}{6}{section.1.4}}
\@writefile{toc}{\contentsline {subsection}{\numberline {1.4.1}Research Stages}{6}{subsection.1.4.1}}
\citation{Matsumoto1998}
\@writefile{toc}{\contentsline {subsection}{\numberline {1.4.2}Scope of the Research}{7}{subsection.1.4.2}}
\@writefile{toc}{\contentsline {subsection}{\numberline {1.4.3}Data Collection and Analysis}{7}{subsection.1.4.3}}
\@setckpt{chapter01}{
\setcounter{page}{8}
\setcounter{equation}{0}
\setcounter{enumi}{4}
\setcounter{enumii}{0}
\setcounter{enumiii}{0}
\setcounter{enumiv}{0}
\setcounter{footnote}{7}
\setcounter{mpfootnote}{0}
\setcounter{part}{0}
\setcounter{chapter}{1}
\setcounter{section}{4}
\setcounter{subsection}{3}
\setcounter{subsubsection}{0}
\setcounter{paragraph}{0}
\setcounter{subparagraph}{0}
\setcounter{figure}{0}
\setcounter{table}{1}
\setcounter{r@tfl@t}{0}
\setcounter{parentequation}{0}
\setcounter{NAT@ctr}{0}
\setcounter{Item}{6}
\setcounter{Hfootnote}{7}
\setcounter{bookmark@seq@number}{10}
\setcounter{AM@survey}{0}
\setcounter{lips@count}{0}
\setcounter{lstnumber}{1}
\setcounter{section@level}{0}
\setcounter{lstlisting}{0}
}
