\relax 
\providecommand\hyper@newdestlabel[2]{}
\citation{Krol:2014:CDF:2759989.2760156}
\@writefile{toc}{\contentsline {chapter}{\numberline {4}Implementation }{40}{chapter.4}}
\@writefile{lof}{\addvspace {10\p@ }}
\@writefile{lot}{\addvspace {10\p@ }}
\@writefile{toc}{\contentsline {section}{\numberline {4.1}SCALARM use case }{40}{section.4.1}}
\@writefile{toc}{\contentsline {subsection}{\numberline {4.1.1}Architecture}{40}{subsection.4.1.1}}
\@writefile{lot}{\contentsline {table}{\numberline {4.1}{\ignorespaces Possible configurations}}{41}{table.4.1}}
\newlabel{table:possibleconfiguration}{{4.1}{41}{Possible configurations}{table.4.1}{}}
\@writefile{toc}{\contentsline {subsection}{\numberline {4.1.2}SCALARM Deployment Cases}{41}{subsection.4.1.2}}
\@writefile{toc}{\contentsline {paragraph}{Small Computation}{41}{figure.4.1}}
\@writefile{lof}{\contentsline {figure}{\numberline {4.1}{\ignorespaces Initial Deployment}}{42}{figure.4.1}}
\newlabel{fig:initialcomputation}{{4.1}{42}{Initial Deployment}{figure.4.1}{}}
\@writefile{lof}{\contentsline {figure}{\numberline {4.2}{\ignorespaces Small computation}}{42}{figure.4.2}}
\newlabel{fig:smallcomputation}{{4.2}{42}{Small computation}{figure.4.2}{}}
\@writefile{toc}{\contentsline {paragraph}{Large Computation}{42}{figure.4.2}}
\@writefile{lof}{\contentsline {figure}{\numberline {4.3}{\ignorespaces Large computation}}{42}{figure.4.3}}
\newlabel{fig:largecomputation}{{4.3}{42}{Large computation}{figure.4.3}{}}
\@writefile{toc}{\contentsline {paragraph}{Constraints}{42}{figure.4.3}}
\@writefile{toc}{\contentsline {paragraph}{Variables are the values assigned to parameters before the deployment}{43}{Item.37}}
\@writefile{toc}{\contentsline {paragraph}{Metrics are the values of the parameters that should be monitored and measured throughout the application runtime.}{43}{Item.37}}
\@writefile{toc}{\contentsline {subsection}{\numberline {4.1.3}SCALARM Mathematical Utility Function}{43}{subsection.4.1.3}}
\newlabel{equation:initialdeploymentcost}{{4.1}{44}{SCALARM Mathematical Utility Function}{equation.4.1.1}{}}
\newlabel{equation:runtimedeploymentcost}{{4.2}{44}{SCALARM Mathematical Utility Function}{equation.4.1.2}{}}
\newlabel{equation:simulationtime}{{4.3}{44}{SCALARM Mathematical Utility Function}{equation.4.1.3}{}}
\newlabel{equation:utilityfunction}{{4.4}{44}{SCALARM Mathematical Utility Function}{equation.4.1.4}{}}
\newlabel{equation:makespan}{{4.6}{45}{SCALARM Mathematical Utility Function}{equation.4.1.6}{}}
\newlabel{equation:mathutilityfunction}{{4.9}{46}{SCALARM Mathematical Utility Function}{equation.4.1.9}{}}
\citation{WitoldPedrycz2011}
\@writefile{lot}{\contentsline {table}{\numberline {4.2}{\ignorespaces Properties of the SCALARM Use case and utility function}}{47}{table.4.2}}
\newlabel{table:scalarmtable}{{4.2}{47}{Properties of the SCALARM Use case and utility function}{table.4.2}{}}
\newlabel{equation:mathutility}{{4.10}{47}{SCALARM Mathematical Utility Function}{equation.4.1.10}{}}
\@writefile{toc}{\contentsline {section}{\numberline {4.2}Fuzzy Membership functional Models}{47}{section.4.2}}
\@writefile{lof}{\contentsline {figure}{\numberline {4.4}{\ignorespaces Membership functional Models used for modelling the SCALARM use case criteria}}{47}{figure.4.4}}
\newlabel{fig:membershipclass}{{4.4}{47}{Membership functional Models used for modelling the SCALARM use case criteria}{figure.4.4}{}}
\@writefile{toc}{\contentsline {subsection}{\numberline {4.2.1}Fuzzy PROMETHEE model implementation of SCALARM}{48}{subsection.4.2.1}}
\@writefile{toc}{\contentsline {paragraph}{Make Span}{48}{subsection.4.2.1}}
\@writefile{lof}{\contentsline {figure}{\numberline {4.5}{\ignorespaces Fuzzy Representation Make Span Difference}}{48}{figure.4.5}}
\newlabel{fig:makespanfuzzyproetheemodel}{{4.5}{48}{Fuzzy Representation Make Span Difference}{figure.4.5}{}}
\@writefile{toc}{\contentsline {paragraph}{Cost}{48}{figure.4.5}}
\@writefile{lof}{\contentsline {figure}{\numberline {4.6}{\ignorespaces Fuzzy Representation of Deployment Cost Difference}}{49}{figure.4.6}}
\newlabel{fig:deploymentcostfuzzyproetheemodel}{{4.6}{49}{Fuzzy Representation of Deployment Cost Difference}{figure.4.6}{}}
\@writefile{toc}{\contentsline {paragraph}{Performance Degradation}{49}{figure.4.6}}
\@writefile{toc}{\contentsline {subsection}{\numberline {4.2.2}Fuzzy Criteria Models Implementation of SCALARM}{49}{subsection.4.2.2}}
\@writefile{toc}{\contentsline {paragraph}{Make Span}{49}{subsection.4.2.2}}
\@writefile{lof}{\contentsline {figure}{\numberline {4.7}{\ignorespaces Fuzzy Representation of Performance Degradation Difference}}{50}{figure.4.7}}
\newlabel{fig:PerformanceDegradationfuzzyproetheemodel}{{4.7}{50}{Fuzzy Representation of Performance Degradation Difference}{figure.4.7}{}}
\@writefile{lof}{\contentsline {figure}{\numberline {4.8}{\ignorespaces Fuzzy representation of Make Span}}{50}{figure.4.8}}
\newlabel{fig:makespanfuzzymodel}{{4.8}{50}{Fuzzy representation of Make Span}{figure.4.8}{}}
\@writefile{toc}{\contentsline {paragraph}{Deployment Cost}{50}{figure.4.8}}
\@writefile{lof}{\contentsline {figure}{\numberline {4.9}{\ignorespaces Fuzzy representation of total Deployment Cost}}{51}{figure.4.9}}
\newlabel{fig:deploymentcostfuzzymodel}{{4.9}{51}{Fuzzy representation of total Deployment Cost}{figure.4.9}{}}
\@writefile{toc}{\contentsline {paragraph}{Performance Degradation}{51}{figure.4.9}}
\@writefile{toc}{\contentsline {section}{\numberline {4.3}Prototype Implementation}{51}{section.4.3}}
\@writefile{toc}{\contentsline {subsection}{\numberline {4.3.1}Fuzzy Membership Functional Model}{51}{subsection.4.3.1}}
\@writefile{lof}{\contentsline {figure}{\numberline {4.10}{\ignorespaces Fuzzy representation Performance Degradation}}{52}{figure.4.10}}
\newlabel{fig:PerformanceDegradationfuzzymodel}{{4.10}{52}{Fuzzy representation Performance Degradation}{figure.4.10}{}}
\@writefile{toc}{\contentsline {subsection}{\numberline {4.3.2}Fuzzy Criteria}{52}{subsection.4.3.2}}
\@writefile{lof}{\contentsline {figure}{\numberline {4.11}{\ignorespaces Fuzzy Membership Functions Class Diagram}}{53}{figure.4.11}}
\newlabel{fig:classdiagram}{{4.11}{53}{Fuzzy Membership Functions Class Diagram}{figure.4.11}{}}
\@writefile{toc}{\contentsline {subsection}{\numberline {4.3.3}Configuration}{53}{subsection.4.3.3}}
\@writefile{lof}{\contentsline {figure}{\numberline {4.12}{\ignorespaces Example Code Snippet of Trapezoidal Membership Functional Model}}{54}{figure.4.12}}
\newlabel{fig:codesnippetTrapozoidal}{{4.12}{54}{Example Code Snippet of Trapezoidal Membership Functional Model}{figure.4.12}{}}
\@writefile{toc}{\contentsline {subsection}{\numberline {4.3.4}Supportive Methods}{54}{subsection.4.3.4}}
\@writefile{lof}{\contentsline {figure}{\numberline {4.13}{\ignorespaces Method skeleton of the getMembershipvalues}}{55}{figure.4.13}}
\newlabel{fig:getMembershipGrades}{{4.13}{55}{Method skeleton of the getMembershipvalues}{figure.4.13}{}}
\@writefile{lot}{\contentsline {table}{\numberline {4.3}{\ignorespaces Supportive Methods}}{55}{table.4.3}}
\newlabel{table:supportivemethods}{{4.3}{55}{Supportive Methods}{table.4.3}{}}
\@writefile{lof}{\contentsline {figure}{\numberline {4.14}{\ignorespaces Criteria Class Diagram}}{55}{figure.4.14}}
\newlabel{fig:criteriaClass}{{4.14}{55}{Criteria Class Diagram}{figure.4.14}{}}
\@writefile{lof}{\contentsline {figure}{\numberline {4.15}{\ignorespaces Example Code Snippet of creating Criterion}}{55}{figure.4.15}}
\newlabel{fig:codesnippetCreatingcriteriaObject}{{4.15}{55}{Example Code Snippet of creating Criterion}{figure.4.15}{}}
\@writefile{toc}{\contentsline {section}{\numberline {4.4}Fuzzy PROMETHEE Modelling and Implementation}{56}{section.4.4}}
\@writefile{toc}{\contentsline {section}{\numberline {4.5}Example}{56}{section.4.5}}
\@writefile{lof}{\contentsline {figure}{\numberline {4.16}{\ignorespaces Configuration class and associated classes}}{56}{figure.4.16}}
\newlabel{fig:conf}{{4.16}{56}{Configuration class and associated classes}{figure.4.16}{}}
\@writefile{lot}{\contentsline {table}{\numberline {4.4}{\ignorespaces Alternative Configurations and respective criteria values- SCALARM use case}}{57}{table.4.4}}
\newlabel{table:configuration values}{{4.4}{57}{Alternative Configurations and respective criteria values- SCALARM use case}{table.4.4}{}}
\@writefile{lof}{\contentsline {figure}{\numberline {4.17}{\ignorespaces Components of Fuzzy PROMETHEE Method}}{57}{figure.4.17}}
\newlabel{fig:fullFuzzyPromthee}{{4.17}{57}{Components of Fuzzy PROMETHEE Method}{figure.4.17}{}}
\@writefile{lof}{\contentsline {figure}{\numberline {4.18}{\ignorespaces Fuzzy Model of the Cost of SCALARM use case, Configuration C is Low cost, and Configuration A is 0.5 Average cost and Configuration B is .8 High cost}}{58}{figure.4.18}}
\newlabel{fig:deploymentcost}{{4.18}{58}{Fuzzy Model of the Cost of SCALARM use case, Configuration C is Low cost, and Configuration A is 0.5 Average cost and Configuration B is .8 High cost}{figure.4.18}{}}
\@writefile{lof}{\contentsline {figure}{\numberline {4.19}{\ignorespaces Fuzzy Model of the Make Span of SCALARM use case, Configuration C is Low make span, Configuration B is 0.8 average Make span and Configuration A is 0.7 High make span }}{58}{figure.4.19}}
\newlabel{fig:makespan}{{4.19}{58}{Fuzzy Model of the Make Span of SCALARM use case, Configuration C is Low make span, Configuration B is 0.8 average Make span and Configuration A is 0.7 High make span}{figure.4.19}{}}
\@writefile{lot}{\contentsline {table}{\numberline {4.5}{\ignorespaces Alternative configurations Rank by three methods- SCALARM use case}}{58}{table.4.5}}
\newlabel{table:configurationRanks}{{4.5}{58}{Alternative configurations Rank by three methods- SCALARM use case}{table.4.5}{}}
\@writefile{lof}{\contentsline {figure}{\numberline {4.20}{\ignorespaces Fuzzy Model of the Performance Degradation of SCALARM use case, Configuration C is Low, Configuration A is 0.5 High and Configuration B is 0.7 High Performance degradation}}{59}{figure.4.20}}
\newlabel{fig:performancedegradation}{{4.20}{59}{Fuzzy Model of the Performance Degradation of SCALARM use case, Configuration C is Low, Configuration A is 0.5 High and Configuration B is 0.7 High Performance degradation}{figure.4.20}{}}
\@writefile{lof}{\contentsline {figure}{\numberline {4.21}{\ignorespaces Fuzzy Model of the Make Span Difference of SCALARM use case}}{59}{figure.4.21}}
\newlabel{fig:examplemakespan}{{4.21}{59}{Fuzzy Model of the Make Span Difference of SCALARM use case}{figure.4.21}{}}
\@writefile{lof}{\contentsline {figure}{\numberline {4.22}{\ignorespaces Fuzzy Model of the Cost Difference of SCALARM use case}}{60}{figure.4.22}}
\newlabel{fig:examplecost}{{4.22}{60}{Fuzzy Model of the Cost Difference of SCALARM use case}{figure.4.22}{}}
\@writefile{lof}{\contentsline {figure}{\numberline {4.23}{\ignorespaces Fuzzy Model of the Performance Degradation Difference of SCALARM use case}}{60}{figure.4.23}}
\newlabel{fig:exampleperformancedegradation}{{4.23}{60}{Fuzzy Model of the Performance Degradation Difference of SCALARM use case}{figure.4.23}{}}
\newlabel{item:weightsetOne}{{4.5}{60}{Example}{table.4.5}{}}
\@writefile{lot}{\contentsline {table}{\numberline {4.6}{\ignorespaces Alternative configurations Rank by three methods for the first weight set- SCALARM use case}}{61}{table.4.6}}
\newlabel{table:configurationRanksWeight}{{4.6}{61}{Alternative configurations Rank by three methods for the first weight set- SCALARM use case}{table.4.6}{}}
\@setckpt{chapter04}{
\setcounter{page}{62}
\setcounter{equation}{10}
\setcounter{enumi}{3}
\setcounter{enumii}{2}
\setcounter{enumiii}{0}
\setcounter{enumiv}{0}
\setcounter{footnote}{2}
\setcounter{mpfootnote}{0}
\setcounter{part}{0}
\setcounter{chapter}{4}
\setcounter{section}{5}
\setcounter{subsection}{0}
\setcounter{subsubsection}{0}
\setcounter{paragraph}{0}
\setcounter{subparagraph}{0}
\setcounter{figure}{23}
\setcounter{table}{6}
\setcounter{r@tfl@t}{0}
\setcounter{parentequation}{0}
\setcounter{NAT@ctr}{0}
\setcounter{Item}{40}
\setcounter{Hfootnote}{11}
\setcounter{bookmark@seq@number}{51}
\setcounter{AM@survey}{0}
\setcounter{lips@count}{0}
\setcounter{lstnumber}{5}
\setcounter{section@level}{0}
\setcounter{lstlisting}{0}
}
