\relax 
\providecommand\hyper@newdestlabel[2]{}
\citation{JeffreyO.Kephart2003}
\citation{S.Hallsteinsena2012}
\citation{K.GeihsP.Barone2008}
\citation{S.Hallsteinsena2012}
\@writefile{toc}{\contentsline {chapter}{\numberline {2}Literature Review}{8}{chapter.2}}
\@writefile{lof}{\addvspace {10\p@ }}
\@writefile{lot}{\addvspace {10\p@ }}
\@writefile{toc}{\contentsline {section}{\numberline {2.1}Related Work in Autonomous computing}{8}{section.2.1}}
\citation{K.GeihsP.Barone2008}
\citation{JeffreyO.Kephart2003}
\citation{WilliamE.Walsh2004}
\citation{WilliamE.Walsh2004}
\@writefile{toc}{\contentsline {subsection}{\numberline {2.1.1}Re-Configuration}{9}{subsection.2.1.1}}
\@writefile{toc}{\contentsline {subsection}{\numberline {2.1.2}Methods used to make decision in Autonomous computing}{9}{subsection.2.1.2}}
\@writefile{toc}{\contentsline {section}{\numberline {2.2}Utility Function}{9}{section.2.2}}
\citation{K.GeihsP.Barone2008}
\citation{S.Hallsteinsena2012}
\citation{K.GeihsP.Barone2008}
\citation{WilliamE.Walsh2004}
\citation{S.Hallsteinsena2012}
\citation{K.GeihsP.Barone2008}
\citation{MounirBeggas2013}
\@writefile{toc}{\contentsline {paragraph}{Project MADAM }{10}{section.2.2}}
\@writefile{toc}{\contentsline {paragraph}{Project MUSIC}{10}{section.2.2}}
\citation{MounirBeggas2013}
\citation{E.Turban1988}
\@writefile{toc}{\contentsline {section}{\numberline {2.3}Decision Making}{12}{section.2.3}}
\citation{JeffreyO.Kephart2003}
\@writefile{toc}{\contentsline {section}{\numberline {2.4}Goals and Preference}{13}{section.2.4}}
\@writefile{toc}{\contentsline {subsection}{\numberline {2.4.1}Multi Criteria Decision Making Methods}{13}{subsection.2.4.1}}
\citation{PatrickTaillandier2011}
\citation{C.M.Tam2006}
\citation{Yuen.K.K.F2012}
\citation{RuchikaBanerjee2013}
\citation{WilliamHo2010}
\citation{HildaLawrance2013}
\citation{Ribeiro1996}
\citation{F.A.Lootsm1990}
\citation{R.Benayoun1966}
\citation{J.P.Brans1985}
\citation{L.Saaty1977}
\citation{ChristerCarlsson1996}
\citation{J.P.Brans1985}
\citation{Yuen.K.K.F2012}
\citation{PatrickTaillandier2011}
\citation{RiccardoDulmin2003}
\citation{Yuen.K.K.F2012}
\@writefile{toc}{\contentsline {paragraph}{PROMETHEE}{15}{subsection.2.4.1}}
\citation{lai1994topsis}
\citation{N.Caterino2009}
\citation{R.Benayoun1966}
\citation{L.Saaty1977}
\citation{SteliosH.Zanakis1998}
\@writefile{toc}{\contentsline {paragraph}{Technique for order preference by similarity to ideal solution (TOPSIS)}{16}{subsection.2.4.1}}
\@writefile{toc}{\contentsline {paragraph}{ELECTRE}{16}{subsection.2.4.1}}
\@writefile{toc}{\contentsline {paragraph}{AHP}{16}{subsection.2.4.1}}
\@setckpt{chapter07}{
\setcounter{page}{17}
\setcounter{equation}{0}
\setcounter{enumi}{5}
\setcounter{enumii}{0}
\setcounter{enumiii}{0}
\setcounter{enumiv}{0}
\setcounter{footnote}{2}
\setcounter{mpfootnote}{0}
\setcounter{part}{0}
\setcounter{chapter}{2}
\setcounter{section}{4}
\setcounter{subsection}{1}
\setcounter{subsubsection}{0}
\setcounter{paragraph}{0}
\setcounter{subparagraph}{0}
\setcounter{figure}{0}
\setcounter{table}{0}
\setcounter{r@tfl@t}{0}
\setcounter{parentequation}{0}
\setcounter{NAT@ctr}{0}
\setcounter{Item}{14}
\setcounter{Hfootnote}{9}
\setcounter{bookmark@seq@number}{18}
\setcounter{AM@survey}{0}
\setcounter{lips@count}{0}
\setcounter{lstnumber}{1}
\setcounter{section@level}{0}
\setcounter{lstlisting}{0}
}
