\relax 
\providecommand\hyper@newdestlabel[2]{}
\citation{JeffreyO.Kephart2003}
\citation{K.GeihsP.Barone2008}
\citation{WilliamE.Walsh2004}
\citation{K.GeihsP.Barone2008}
\@writefile{toc}{\contentsline {chapter}{\numberline {2}Literature Review}{8}{chapter.2}}
\@writefile{lof}{\addvspace {10\p@ }}
\@writefile{lot}{\addvspace {10\p@ }}
\@writefile{toc}{\contentsline {section}{\numberline {2.1}Related Work in Autonomous computing}{8}{section.2.1}}
\citation{S.Hallsteinsena2012}
\citation{LuisDiegoBriceno2011}
\citation{MounirBeggas2013}
\citation{WilliamE.Walsh2004}
\citation{K.GeihsP.Barone2008}
\citation{S.Hallsteinsena2012}
\citation{MounirBeggas2013}
\citation{ZADEH1965}
\citation{JeffreyO.Kephart2003}
\citation{K.GeihsP.Barone2008}
\citation{WilliamE.Walsh2004}
\citation{S.Hallsteinsena2012}
\citation{K.GeihsP.Barone2008}
\citation{C.M.Tam2006}
\citation{N.Caterino2009}
\citation{PatrickTaillandier2011}
\citation{MounirBeggas2013}
\citation{RobertaParreiras2013}
\citation{E.Turban1988}
\citation{Ribeiro1996}
\citation{SteliosH.Zanakis1998}
\@writefile{toc}{\contentsline {section}{\numberline {2.2}Goals and Preference}{12}{section.2.2}}
\@writefile{toc}{\contentsline {section}{\numberline {2.3}Decision Making}{12}{section.2.3}}
\citation{C.M.Tam2006}
\citation{N.Caterino2009}
\citation{PatrickTaillandier2011}
\citation{C.M.Tam2006}
\citation{Yuen.K.K.F2012}
\citation{RuchikaBanerjee2013}
\citation{WilliamHo2010}
\@writefile{toc}{\contentsline {subsection}{\numberline {2.3.1}Multi Criteria Decision Making}{13}{subsection.2.3.1}}
\citation{F.A.Lootsm1990}
\citation{R.Benayoun1966}
\citation{J.P.Brans1985}
\citation{ChristerCarlsson1996}
\citation{J.P.Brans1985}
\citation{J.P.Brans1985}
\@writefile{toc}{\contentsline {paragraph}{PROMETHEE}{14}{subsection.2.3.1}}
\citation{L.Saaty1977}
\citation{HildaLawrance2013}
\citation{Yuen.K.K.F2012}
\citation{PatrickTaillandier2011}
\citation{RiccardoDulmin2003}
\citation{N.Caterino2009}
\@writefile{toc}{\contentsline {paragraph}{Technique for order preference by similarity to ideal solution (TOPSIS)}{15}{subsection.2.3.1}}
\@writefile{toc}{\contentsline {paragraph}{ELECTRE}{15}{subsection.2.3.1}}
\@writefile{toc}{\contentsline {paragraph}{AHP}{15}{subsection.2.3.1}}
\@writefile{toc}{\contentsline {subsection}{\numberline {2.3.2}Application of Multi Criteria Decision Making Methods}{15}{subsection.2.3.2}}
\citation{Yuen.K.K.F2012}
\citation{ZADEH1965}
\citation{Zadeh1996}
\citation{ZADEH1975}
\citation{Ying-MingWang2005}
\citation{MounirBeggas2013}
\citation{MacroBeccali1998}
\@writefile{toc}{\contentsline {section}{\numberline {2.4}Fuzzy Logic}{16}{section.2.4}}
\@writefile{toc}{\contentsline {subsection}{\numberline {2.4.1}Linguistic Variables}{16}{subsection.2.4.1}}
\@writefile{toc}{\contentsline {paragraph}{Computing with Words}{16}{subsection.2.4.1}}
\@writefile{toc}{\contentsline {subsection}{\numberline {2.4.2}Fuzzy Multi Criteria Decision Making}{16}{subsection.2.4.2}}
\citation{C.M.Tam2006}
\@writefile{toc}{\contentsline {section}{\numberline {2.5}Fuzzy Pairwise Relation Method}{17}{section.2.5}}
\@setckpt{chapter02}{
\setcounter{page}{18}
\setcounter{equation}{0}
\setcounter{enumi}{4}
\setcounter{enumii}{0}
\setcounter{enumiii}{0}
\setcounter{enumiv}{0}
\setcounter{footnote}{0}
\setcounter{mpfootnote}{0}
\setcounter{part}{0}
\setcounter{chapter}{2}
\setcounter{section}{5}
\setcounter{subsection}{0}
\setcounter{subsubsection}{0}
\setcounter{paragraph}{0}
\setcounter{subparagraph}{0}
\setcounter{figure}{0}
\setcounter{table}{0}
\setcounter{r@tfl@t}{0}
\setcounter{parentequation}{0}
\setcounter{NAT@ctr}{0}
\setcounter{Item}{6}
\setcounter{Hfootnote}{5}
\setcounter{bookmark@seq@number}{21}
\setcounter{lips@count}{0}
\setcounter{lstnumber}{1}
\setcounter{section@level}{0}
\setcounter{lstlisting}{0}
}
