\relax 
\providecommand\hyper@newdestlabel[2]{}
\providecommand\HyperFirstAtBeginDocument{\AtBeginDocument}
\HyperFirstAtBeginDocument{\ifx\hyper@anchor\@undefined
\global\let\oldcontentsline\contentsline
\gdef\contentsline#1#2#3#4{\oldcontentsline{#1}{#2}{#3}}
\global\let\oldnewlabel\newlabel
\gdef\newlabel#1#2{\newlabelxx{#1}#2}
\gdef\newlabelxx#1#2#3#4#5#6{\oldnewlabel{#1}{{#2}{#3}}}
\AtEndDocument{\ifx\hyper@anchor\@undefined
\let\contentsline\oldcontentsline
\let\newlabel\oldnewlabel
\fi}
\fi}
\global\let\hyper@last\relax 
\gdef\HyperFirstAtBeginDocument#1{#1}
\providecommand\HyField@AuxAddToFields[1]{}
\providecommand\HyField@AuxAddToCoFields[2]{}
\reset@newl@bel
\@input{front.aux}
\newacro{mcdm}[MCDM]{Multi Criteria Decision Making}
\newacro{modm}[MODM]{Multi Objective Decision Making }
\newacro{madm}[MADM]{Multi Attribute Decision Making}
\newacro{em}[EM]{ExperimentManager}
\newacro{sm}[SM]{Storage Manager}
\newacro{lb}[LM]{Load Balancer}
\newacro{is}[IS]{InformationService}
\newacro{w}[W]{worker}
\select@language{english}
\@writefile{toc}{\select@language{english}}
\@writefile{lof}{\select@language{english}}
\@writefile{lot}{\select@language{english}}
\@input{empty.aux}
\@input{preface.aux}
\@input{acknowledgment.aux}
\@input{chapter01.aux}
\@input{chapter07.aux}
\@input{chapter03.aux}
\@input{chapter04.aux}
\@input{chapter05.aux}
\@input{chapter0n.aux}
\bibstyle{apa}
\bibdata{refs}
\bibcite{AmitGajbhiye2014}{{1}{2014}{{Amit~Gajbhiye}}{{}}}
\bibcite{RuchikaBanerjee2013}{{2}{2013}{{Banerjee and Ghosh}}{{}}}
\bibcite{R.Benayoun1966}{{3}{1966}{{Benayoun et~al.}}{{}}}
\bibcite{J.P.Brans1985}{{4}{1985}{{Brans and Vincke}}{{}}}
\bibcite{N.Caterino2009}{{5}{2009}{{Caterino et~al.}}{{}}}
\bibcite{ChristerCarlsson1996}{{6}{1996}{{Christer~Carlsson}}{{}}}
\bibcite{W.J.Conover1999}{{7}{1999}{{Conover}}{{}}}
\bibcite{K.GeihsP.Barone2008}{{8}{2008}{{Geihs et~al.}}{{}}}
\bibcite{S.Hallsteinsena2012}{{9}{2012}{{Hallsteinsena et~al.}}{{}}}
\@writefile{toc}{\contentsline {chapter}{Bibliography}{72}{Item.57}}
\bibcite{HildaLawrance2013}{{10}{2013}{{Hilda~Lawrance}}{{}}}
\bibcite{WilliamHo2010}{{11}{2010}{{Ho. et~al.}}{{}}}
\bibcite{JeffreyO.Kephart2003}{{12}{2003}{{Jeffrey~O.Kephart}}{{}}}
\bibcite{raey}{{13}{2010}{{Jin et~al.}}{{}}}
\bibcite{Krol:2014:CDF:2759989.2760156}{{14}{2014}{{Kr\'{o}l et~al.}}{{}}}
\bibcite{lai1994topsis}{{15}{1994}{{Lai et~al.}}{{}}}
\bibcite{LinhManhPham2015}{{16}{2015}{{Linh Manh~Pham et~al.}}{{}}}
\bibcite{LizheWang2008}{{17}{2008}{{Lizhe~Wang et~al.}}{{}}}
\bibcite{F.A.Lootsm1990}{{18}{1990}{{Lootsma}}{{}}}
\bibcite{L.Saaty1977}{{19}{1977}{{L.Saaty}}{{}}}
\bibcite{MarcioSilva2013}{{20}{2013}{{Marcio~Silva et~al.}}{{}}}
\bibcite{MariosD.Dikaiakos2009}{{21}{2009}{{Marios D.~Dikaiakos et~al.}}{{}}}
\bibcite{Matsumoto1998}{{22}{1998}{{Matsumoto and Nishimura}}{{}}}
\bibcite{MounirBeggas2013}{{23}{2013}{{Mounir~Beggas et~al.}}{{}}}
\bibcite{MuhammadBaqerMollah2012}{{24}{2012}{{Muhammad Baqer~Mollah and Islam}}{{}}}
\bibcite{ORI_.OVSKY1978}{{25}{1978}{{Orlovsky}}{{}}}
\bibcite{PatrickTaillandier2011}{{26}{2011}{{Patrick~Taillandier}}{{}}}
\bibcite{R.Halmos1960}{{27}{1960}{{R.Halmos}}{{}}}
\bibcite{Ribeiro1996}{{28}{1996}{{Ribeiro}}{{}}}
\bibcite{RiccardoDulmin2003}{{29}{2003}{{Riccardo~Dulmin}}{{}}}
\bibcite{C.M.Tam2006}{{30}{2006}{{Tam et~al.}}{{}}}
\bibcite{E.Turban1988}{{31}{1988}{{Turban}}{{}}}
\bibcite{WilliamE.Walsh2004}{{32}{2004}{{Walsh et~al.}}{{}}}
\bibcite{Wilcoxon1945}{{33}{1945}{{Wilcoxon}}{{}}}
\bibcite{WitoldPedrycz2011}{{34}{2011}{{Witold~Pedrycz and Parreiras}}{{}}}
\bibcite{YashpalsinhJadeja2012}{{35}{2012}{{Yashpalsinh~Jadeja}}{{}}}
\bibcite{Yuen.K.K.F2012}{{36}{2012}{{Yuen and Ting}}{{}}}
\bibcite{ZADEH1965}{{37}{1965}{{Zadeh}}{{}}}
\bibcite{ZADEH1975}{{38}{1975}{{Zadeh}}{{}}}
\bibcite{SteliosH.Zanakis1998}{{39}{1998}{{Zanakis et~al.}}{{}}}
\@input{acronyms.aux}
